{
  "project_info": {
    "project_number": "491404854245",
    "firebase_url": "https://walletdemo-4ab3b.firebaseio.com",
    "project_id": "walletdemo-4ab3b",
    "storage_bucket": "walletdemo-4ab3b.appspot.com"
  },
  "client": [
    {
      "client_info": {
        "mobilesdk_app_id": "1:491404854245:android:be63a22afb69f3e3",
        "android_client_info": {
          "package_name": "com.app_wallet"
        }
      },
      "oauth_client": [
        {
          "client_id": "491404854245-lm555c63tujk4mbgv4lmbkk7ivh1b6bt.apps.googleusercontent.com",
          "client_type": 3
        }
      ],
      "api_key": [
        {
          "current_key": "AIzaSyBZ1udWXIctCAaJ_saPJN3rHydYROi-PQ8"
        }
      ],
      "services": {
        "analytics_service": {
          "status": 1
        },
        "appinvite_service": {
          "status": 1,
          "other_platform_oauth_client": []
        },
        "ads_service": {
          "status": 2
        }
      }
    }
  ],
  "configuration_version": "1"
}